{
    "dbURL":"mongodb://admin:admin@ds033875.mongolab.com:33875/chatcat",
    "sessionSecret":"dsfohdslfkhs20ry9gfidhkjoiu;r8yrgfidsjh",
    "fb":{
        "appID":"475938699252485",
        "appSecret": "5a8de8a69d9946178fc832e8a2f73764",
        "callbackURL": "https://node-course-1-th3legend.c9users.io/auth/facebook/callback"
    },
    "host":"https://node-course-1-th3legend.c9users.io"
}